[gd_scene load_steps=4 format=3 uid="uid://bv8vbvohxsms7"]

[ext_resource type="Script" path="res://scenes/menu/screens/defeat.gd" id="1_v0mx4"]
[ext_resource type="FontFile" uid="uid://duxnuneu1nssi" path="res://assets/fonts/ConnectionII.otf" id="2_3u1ey"]
[ext_resource type="AudioStream" uid="uid://bexirnlocjjy3" path="res://assets/audio/crowd_boo.mp3" id="3_iyhi8"]

[node name="Defeat" type="CanvasLayer"]
script = ExtResource("1_v0mx4")

[node name="Background" type="ColorRect" parent="."]
offset_right = 480.0
offset_bottom = 270.0
color = Color(0.847059, 0.627451, 0.0588235, 1)

[node name="Title" type="Label" parent="."]
offset_top = 30.0
offset_right = 240.0
offset_bottom = 60.0
scale = Vector2(2, 2)
theme_override_fonts/font = ExtResource("2_3u1ey")
theme_override_font_sizes/font_size = 26
text = "Defeat!"
horizontal_alignment = 1

[node name="Context" type="Label" parent="."]
offset_top = 100.0
offset_right = 480.0
offset_bottom = 126.0
theme_override_fonts/font = ExtResource("2_3u1ey")
text = "The Autumn Festival was pretty boring..."
horizontal_alignment = 1

[node name="Button" type="Button" parent="."]
offset_left = 148.0
offset_top = 187.0
offset_right = 348.0
offset_bottom = 237.0
theme_override_fonts/font = ExtResource("2_3u1ey")
text = "Return to menu"

[node name="Crowd" type="AudioStreamPlayer" parent="."]
stream = ExtResource("3_iyhi8")
volume_db = -15.0

[connection signal="visibility_changed" from="." to="." method="_on_visibility_changed"]
[connection signal="pressed" from="Button" to="." method="_on_button_pressed"]
