[gd_scene load_steps=5 format=3 uid="uid://66i83s1eliik"]

[ext_resource type="Script" path="res://scenes/menu/screens/victory.gd" id="1_7g2yt"]
[ext_resource type="FontFile" uid="uid://duxnuneu1nssi" path="res://assets/fonts/ConnectionII.otf" id="2_5rcke"]
[ext_resource type="Texture2D" uid="uid://bhq3xdwgaq2yo" path="res://assets/sprites/victory.png" id="2_tbics"]
[ext_resource type="AudioStream" uid="uid://bis42arb0l0g7" path="res://assets/audio/crowd_cheer.mp3" id="4_u8fru"]

[node name="Victory" type="CanvasLayer"]
script = ExtResource("1_7g2yt")

[node name="Victory" type="Sprite2D" parent="."]
position = Vector2(240, 135)
texture = ExtResource("2_tbics")

[node name="Title" type="Label" parent="."]
offset_left = 107.0
offset_top = 5.0
offset_right = 235.0
offset_bottom = 35.0
scale = Vector2(2, 2)
theme_override_fonts/font = ExtResource("2_5rcke")
theme_override_font_sizes/font_size = 26
text = "Victory!"
horizontal_alignment = 1

[node name="Context" type="Label" parent="."]
offset_left = 19.0
offset_top = 139.0
offset_right = 127.0
offset_bottom = 206.0
theme_override_fonts/font = ExtResource("2_5rcke")
text = "The Autumn
Festival was
great <3"
horizontal_alignment = 1

[node name="BackToMenu" type="Button" parent="."]
offset_left = 140.0
offset_top = 203.0
offset_right = 340.0
offset_bottom = 253.0
theme_override_fonts/font = ExtResource("2_5rcke")
text = "Return to menu"

[node name="Crowd" type="AudioStreamPlayer" parent="."]
stream = ExtResource("4_u8fru")
volume_db = -10.0

[connection signal="visibility_changed" from="." to="." method="_on_visibility_changed"]
[connection signal="pressed" from="BackToMenu" to="." method="_on_back_to_menu_pressed"]
