[gd_scene load_steps=3 format=3 uid="uid://bkcceasyu2ays"]

[ext_resource type="Script" path="res://scenes/game/furnitures/Cart.gd" id="1_4x0lb"]

[sub_resource type="RectangleShape2D" id="RectangleShape2D_3p31q"]
size = Vector2(56, 34)

[node name="Cart" type="Area2D"]
script = ExtResource("1_4x0lb")

[node name="CollisionShape2D" type="CollisionShape2D" parent="."]
shape = SubResource("RectangleShape2D_3p31q")
debug_color = Color(0, 0.643137, 0.290196, 0.419608)

[connection signal="body_entered" from="." to="." method="_on_body_entered"]
