[gd_resource type="TileSet" load_steps=5 format=3 uid="uid://dkyem24jgevx0"]

[ext_resource type="Texture2D" uid="uid://da0h6lki25e35" path="res://assets/sprites/ground_tiles.png" id="1_wok6k"]
[ext_resource type="Texture2D" uid="uid://dla46lyuiyt8m" path="res://assets/sprites/plants_tiles.png" id="2_8vpp8"]

[sub_resource type="TileSetAtlasSource" id="TileSetAtlasSource_70wsf"]
resource_name = "soil"
texture = ExtResource("1_wok6k")
0:0/0 = 0
0:0/0/terrain_set = 0
0:0/0/terrain = 0
0:0/0/physics_layer_0/linear_velocity = Vector2(0, 0)
0:0/0/physics_layer_0/angular_velocity = 0.0
1:0/0 = 0
1:0/0/terrain_set = 0
1:0/0/terrain = 1
1:0/0/physics_layer_0/linear_velocity = Vector2(0, 0)
1:0/0/physics_layer_0/angular_velocity = 0.0
0:1/0 = 0
0:1/0/physics_layer_0/linear_velocity = Vector2(0, 0)
0:1/0/physics_layer_0/angular_velocity = 0.0
1:1/0 = 0
1:1/0/terrain_set = 0
1:1/0/terrain = 2
1:1/0/physics_layer_0/linear_velocity = Vector2(0, 0)
1:1/0/physics_layer_0/angular_velocity = 0.0
1:2/0 = 0
1:2/0/physics_layer_0/linear_velocity = Vector2(0, 0)
1:2/0/physics_layer_0/angular_velocity = 0.0
1:3/0 = 0
1:3/0/physics_layer_0/linear_velocity = Vector2(0, 0)
1:3/0/physics_layer_0/angular_velocity = 0.0
0:3/0 = 0
0:3/0/physics_layer_0/linear_velocity = Vector2(0, 0)
0:3/0/physics_layer_0/angular_velocity = 0.0
0:2/0 = 0
0:2/0/physics_layer_0/linear_velocity = Vector2(0, 0)
0:2/0/physics_layer_0/angular_velocity = 0.0

[sub_resource type="TileSetAtlasSource" id="TileSetAtlasSource_tjtwd"]
resource_name = "pumpkin"
texture = ExtResource("2_8vpp8")
0:0/next_alternative_id = 2
0:0/0 = 0
0:0/0/terrain_set = 1
0:0/0/terrain = 0
0:0/0/physics_layer_0/linear_velocity = Vector2(0, 0)
0:0/0/physics_layer_0/angular_velocity = 0.0
0:0/1 = 1
0:0/1/modulate = Color(1, 1, 1, 0.52549)
0:0/1/physics_layer_0/linear_velocity = Vector2(0, 0)
0:0/1/physics_layer_0/angular_velocity = 0.0
1:0/0 = 0
1:0/0/terrain_set = 1
1:0/0/terrain = 1
1:0/0/physics_layer_0/linear_velocity = Vector2(0, 0)
1:0/0/physics_layer_0/angular_velocity = 0.0
2:0/0 = 0
2:0/0/terrain_set = 1
2:0/0/terrain = 2
2:0/0/physics_layer_0/linear_velocity = Vector2(0, 0)
2:0/0/physics_layer_0/angular_velocity = 0.0

[resource]
physics_layer_0/collision_layer = 1
terrain_set_0/mode = 0
terrain_set_0/terrain_0/name = "Dirt"
terrain_set_0/terrain_0/color = Color(0.5, 0.34375, 0.25, 1)
terrain_set_0/terrain_1/name = "Dry soil"
terrain_set_0/terrain_1/color = Color(0.5, 0.4375, 0.25, 1)
terrain_set_0/terrain_2/name = "Wet soil"
terrain_set_0/terrain_2/color = Color(0.470588, 0.501961, 0.25098, 1)
terrain_set_1/mode = 0
terrain_set_1/terrain_0/name = "Seed"
terrain_set_1/terrain_0/color = Color(0.74902, 0.686275, 0.0313726, 1)
terrain_set_1/terrain_1/name = "Seedling"
terrain_set_1/terrain_1/color = Color(0.254902, 0.517647, 0, 1)
terrain_set_1/terrain_2/name = "Grown"
terrain_set_1/terrain_2/color = Color(0.764706, 0.317647, 0, 1)
sources/0 = SubResource("TileSetAtlasSource_70wsf")
sources/1 = SubResource("TileSetAtlasSource_tjtwd")
